Willing to acquire file bootstrap.pkl from
/afs/cern.ch/user/s/ssnyder/atlas-work3/build-x86_64-centos7-gcc8-dbg/x86_64-centos7-gcc8-dbg/share/bootstrap.pkl
copy bootstrap.pkl
Run with arguments:
confTool.py --diff bootstrap.pkl bootstrap_test.pkl
Step 1: reference file #components: 29
Step 2: file to check  #components: 29
Legend:
[91mDifferences in components [92mSettings in 1st file [35mSettings in 2nd file[0m
Willing to acquire file bootstrap_threaded.pkl from
/afs/cern.ch/user/s/ssnyder/atlas-work3/build-x86_64-centos7-gcc8-dbg/x86_64-centos7-gcc8-dbg/share/bootstrap_threaded.pkl
copy bootstrap_threaded.pkl
Run with arguments:
confTool.py --diff bootstrap_threaded.pkl bootstrap_threaded_test.pkl
Step 1: reference file #components: 36
Step 2: file to check  #components: 36
Legend:
[91mDifferences in components [92mSettings in 1st file [35mSettings in 2nd file[0m
